Doriscar_Jonathan_project2_memo
…
I am familiarizing myself with the nature of the data set to get an idea of the structure of each of my variables.

Code

yt_dt %>%
  group_by(channel_title) %>%
  summarise(n = n(), total_subscribers = sum(subscribers)) %>%
  arrange(desc(total_subscribers))

# A tibble: 135 × 3
   channel_title         n total_subscribers
   <chr>             <int>             <dbl>
 1 Movieclips         1309       78540000000
 2 ABC News           3511       53700200000
 3 CNN                2319       36527300000
 4 NBC News           3999       36437010000
 5 Law&Crime Network  6445       34615750000
 6 PoliceActivity     6155       32199440000
 7 LastWeekTonight    3310       30562100000
 8 Inside Edition     1592       19929200000
 9 The Young Turks    2181       12219750000
10 NowThis News       3787       10641850000
# ℹ 125 more rows

Code

yt_dt %>%
  group_by(channel_title) %>%
  summarise(distinct_videos = n_distinct(video_title),
            total_subscribers = sum(subscribers)) %>%
  arrange(desc(distinct_videos))

# A tibble: 135 × 3
   channel_title                     distinct_videos total_subscribers
   <chr>                                       <int>             <dbl>
 1 TYT Sports                                      8        2484793000
 2 ABC News                                        6       53700200000
 3 Law&Crime Network                               5       34615750000
 4 NBC News                                        5       36437010000
 5 PoliceActivity                                  4       32199440000
 6 CGTN America                                    3         164129000
 7 Click On Detroit | Local 4 | WDIV               3         927239000
 8 On Demand News                                  3        1212840000
 9 Rossen Law Firm                                 3          23978200
10 ABC 7 Chicago                                   2          66048000
# ℹ 125 more rows

Code

yt_dt %>% 
  group_by(video_title) %>% 
  summarise(n = n(), total_likes = sum(likes)) %>%
  arrange(desc(total_likes))

# A tibble: 182 × 3
   video_title                                                     n total_likes
   <chr>                                                       <int>       <int>
 1 Cop Caught Arresting the Wrong Man in  Racial Profiling In…  3787     1689602
 2 CAUGHT ON DASH CAM: Citizens Saved from Police Misconduct    1271      509877
 3 Police brutality (Favorite parts Shrek 2)                    1244      464563
 4 Police: Last Week Tonight with John Oliver (HBO)             2160      420115
 5 FEMALE POLICE OFFICER PULLS PISTOL ON COMPLYING MALE         1228      404646
 6 Cop confrontation goes viral                                 1190      328663
 7 Straight Outta Compton (5/10) Movie CLIP - Police Harassme…  1282      241648
 8 I spent a day with SURVIVORS OF POLICE BRUTALITY             1178      240597
 9 Bodycam Shows Florida Police Sergeant Grabbing Female Offi…  1385      214515
10 Unarmed man begs for life, shot by police                    1129      189841
# ℹ 172 more rows

Code

yt_dt %>%
  group_by(video_title) %>%
  summarise(n = n(), total_comments = sum(comment_count)) %>%
  arrange(desc(total_comments))

# A tibble: 182 × 3
   video_title                                                  n total_comments
   <chr>                                                    <int>          <int>
 1 Cop Caught Arresting the Wrong Man in  Racial Profiling…  3787      187662957
 2 Police: Last Week Tonight with John Oliver (HBO)          2160      113844960
 3 Cop confrontation goes viral                              1190       99074640
 4 [WARNING: GRAPHIC] U.S. Army Veteran Settles California…  2551       77671748
 5 FEMALE POLICE OFFICER PULLS PISTOL ON COMPLYING MALE      1228       76999284
 6 Unarmed man begs for life, shot by police                 1129       55428255
 7 CAUGHT ON DASH CAM: Citizens Saved from Police Miscondu…  1271       48911893
 8 Deputy Gets Shot 3 Times During a Wild Shootout With Th…  1392       46093296
 9 Bodycam Shows Florida Police Sergeant Grabbing Female O…  1385       42392080
10 Texas Cop Resigns After Pool Party Confrontation Video …  1254       40461564
# ℹ 172 more rows

“Cop Caught Arresting the Wrong Man in Racial Profiling Incident | NowThis” is the video with the most comments and likes. As we continue through data analysis we should consider this video as it seems to video that is driving a lot of engagement. Also interesting of the top 5 channels in terms of subscriber count, the first three are news channels which is interesting for thinking about political affiliation of the accounts posting these videos and how that might be related to commenter political affiliation (i.e., almost as a proxy). I am also able to see with the code above which channels have posted the most videos in our data set, “TYT Sports” is atop the list with 8. This channel should be further investigated as most videos are below 5.

Code

yt_dt %>%
  group_by(comment) %>%
  summarise(n = n(), comment_replies = sum(replies)) %>%
  arrange(desc(comment_replies))

# A tibble: 87,241 × 3
   comment                                                     n comment_replies
   <chr>                                                   <int>           <int>
 1 "*meanwhile cops wondering why people hate them so muc…     3            1103
 2 "Meanwhile in louisana...\nQuintin sips a beer while l…     3            1077
 3 "People downplay how traumatic this is. Someone can ju…     3             981
 4 "Sad part he won't get justice. The police will give a…     3             963
 5 "Police: \"I know who you are.\"\nMan: \"Then what´s m…     3             870
 6 "I'm not even black but I felt that when he said \"I'm…     3             732
 7 "I hate how they act like the black guy needs to calm …     3             687
 8 "What kind of parent brings a child into this mess?"        2             652
 9 "Don’t call law enforcement to a domestic if you expec…     2             632
10 "It is so disgusting to keep hearing about settlements…     2             622
# ℹ 87,231 more rows
…
yt_dt <- yt_dt %>%
  group_by(username) %>%
  mutate(distinct_videos_commented = n_distinct(video_title),
         comment_total_username = n()) %>%
  arrange(desc(comment_total_username)) 

Code

yt_dt %>%
  group_by(username) %>%
  summarise(distinct_comments = n_distinct(comment),
            total_comments = n()) %>%
  arrange(desc(distinct_comments))

# A tibble: 74,102 × 3
   username      distinct_comments total_comments
   <chr>                     <int>          <int>
 1 John                         47             55
 2 John Doe                     42             51
 3 Larry Hohol                  42             42
 4 Michael                      40             47
 5 J                            38             49
 6 David                        37             43
 7 John Smith                   36             40
 8 geisterbahn1                 34             34
 9 Chris                        32             39
10 Edward hickey                30             33
# ℹ 74,092 more rows

The code that I have ran above allows me to see how many comments each user has commented, and it allows me to see the number of distinct videos that they commented on. For example, John has commented the most of any user and also seems to have commented on more videos than any other user. As I conduct analyses and calculate comment sentiment, this user is someone to keep in mind as they might also be one of the biggest drivers of negative sentiment. Generally it seems that for the most part, total_comments and distinct_comments are related such that as total comments rises so does distinct comments.

Code

yt_dt %>%
  group_by(comment) %>%
  summarise(n = n(), comment_likes = sum(likes)) %>%
  arrange(desc(comment_likes))

# A tibble: 87,241 × 3
   comment                                                       n comment_likes
   <chr>                                                     <int>         <int>
 1 "Meanwhile in louisana...\nQuintin sips a beer while lau…     3        163760
 2 "*meanwhile cops wondering why people hate them so much*"     3        138721
 3 "- White guy gets pepper sprayed\n- Black guy has excess…     1        107960
 4 "Never take off your seatbelt. Never. I’m wearing mine n…     1         80028
 5 "The Pepper spray bit is such a subtle joke but also so …     1         78130
 6 "I hate how they act like the black guy needs to calm do…     3         72290
 7 "People downplay how traumatic this is. Someone can just…     3         68412
 8 "Police: \"I know who you are.\"\nMan: \"Then what´s my …     3         52604
 9 "This entire sequence is peak cinema. Literally from the…     1         43572
10 "Only Shrek could make a joke about drugs, police brutal…     2         42821
# ℹ 87,231 more rows

Code

yt_dt %>%
  group_by(username) %>%
  top_n(1, wt = likes) %>%
  summarize(most_likes = max(likes),
            most_liked_comment = first(comment),
            most_likes_replies = max(replies),
            video_title = first(video_title)) %>%
  arrange(desc(most_likes))

# A tibble: 74,102 × 5
   username         most_likes most_liked_comment most_likes_replies video_title
   <chr>                 <int> <chr>                           <int> <chr>      
 1 Ramboost007          107960 "- White guy gets…                500 Police bru…
 2 Jason Hester          80028 "Never take off y…                494 CAUGHT ON …
 3 I am The Batman       78130 "The Pepper spray…                108 Police bru…
 4 Kees_Maarschalk…      54591 "Meanwhile in lou…                359 Cop Caught…
 5 Only Here For M…      46244 "*meanwhile cops …                368 Cop Caught…
 6 PaGaDo                43572 "This entire sequ…                 35 Police bru…
 7 #Beanie-Inkling…      42819 "Only Shrek could…                 77 Police bru…
 8 Chris P. Bacon        28720 "I love how Puss …                329 Police bru…
 9 Silent Bob            28048 "If she’s that ne…                383 FEMALE POL…
10 Steven s              26855 "This is exactly …                472 Cop confro…
# ℹ 74,092 more rows

This code allows me to see which comments across the entire data set are receiving the most likes and replies. The video “Police brutality (Favorite parts Shrek 2)” has 6 of the top 10 most liked comments suggesting that there is something interesting going on with this video. As I go back and watch the video, this makes sense as it is a really funny video that it supposed to be satire about the way that people engage with police brutality. This makes me realize that some of the videos in this data set are not police brutality per say, but they are about police brutality which is something to consider in the data analysis process.

Time Descriptives:

Code

 yt_dt %>%
  mutate(video_published_at = as.POSIXct(video_published_at, format = "%Y-%m-%d %H:%M:%S")) %>%
  arrange(video_published_at, video_title)

# A tibble: 102,302 × 15
# Groups:   username [74,102]
   video_id    video_title      channel_title subscribers username comment likes
   <chr>       <chr>            <chr>               <int> <chr>    <chr>   <int>
 1 ibSwITK4jjQ Police Brutality muzztard              378 Michael  "If yo…     0
 2 ibSwITK4jjQ Police Brutality muzztard              378 Nick     "not t…     0
 3 ibSwITK4jjQ Police Brutality muzztard              378 steve s… "You a…     0
 4 ibSwITK4jjQ Police Brutality muzztard              378 steve s… "That …     0
 5 ibSwITK4jjQ Police Brutality muzztard              378 steve s… "That …     0
 6 ibSwITK4jjQ Police Brutality muzztard              378 steve s… "He ta…     0
 7 ibSwITK4jjQ Police Brutality muzztard              378 steve s… "Hope …     0
 8 ibSwITK4jjQ Police Brutality muzztard              378 steve s… "The p…     0
 9 ibSwITK4jjQ Police Brutality muzztard              378 steve s… "She g…     0
10 ibSwITK4jjQ Police Brutality muzztard              378 steve s… "That …     0
# ℹ 102,292 more rows
# ℹ 8 more variables: comment_published_at <chr>, replies <int>,
#   view_count <int>, like_count <int>, comment_count <int>,
#   video_published_at <dttm>, distinct_videos_commented <int>,
#   comment_total_username <int>
…
Code

# Explore the distribution of comments over hours of the day
sampled_yt_dt %>%
  count(comment_hour_of_day) %>%
  arrange(desc(n))

# A tibble: 24 × 2
   comment_hour_of_day     n
                 <int> <int>
 1                  22   535
 2                  20   534
 3                  21   518
 4                  16   514
 5                  18   505
 6                   0   491
 7                  23   491
 8                  19   479
 9                  17   477
10                  15   473
# ℹ 14 more rows
…
Code

sampled_yt_dt <- sampled_yt_dt %>%
  mutate(video_published_at = ymd_hms(video_published_at),
         video_day_of_week = weekdays(video_published_at),
         video_hour_of_day = hour(video_published_at))

Code

sampled_yt_dt %>%
  group_by(video_title, video_day_of_week) %>%
  count() %>%
  arrange(video_title, desc(n))

# A tibble: 166 × 3
# Groups:   video_title, video_day_of_week [166]
   video_title                                           video_day_of_week     n
   <chr>                                                 <chr>             <int>
 1 $5.75 million Columbus police brutality settlement    Friday                6
 2 1969 - When Gays First Fought Back Against Police Br… Wednesday            13
 3 2Pac's experience with police brutality               Saturday              2
 4 3 college students accuse LA County deputies of raci… Friday               99
 5 40+ New Police Brutality videos emerge during the Ge… Monday              224
 6 5 Worst Cases of Police Brutality Caught on Tape      Wednesday            63
 7 6 HORRIFIC Police Brutality Cases                     Tuesday              75
 8 7 Police Officers and Nurse Charged in 2020 Death of… Thursday             28
 9 A Terrible Montage of Police Brutality                Tuesday             145
10 Albuquerque Police Patrol The Streets | FULL EPISODE… Wednesday            21
# ℹ 156 more rows

Code

sampled_yt_dt %>%
  group_by(video_title, video_hour_of_day) %>%
  count() %>%
  arrange(video_title, desc(n))

# A tibble: 166 × 3
# Groups:   video_title, video_hour_of_day [166]
   video_title                                           video_hour_of_day     n
   <chr>                                                             <int> <int>
 1 $5.75 million Columbus police brutality settlement                    4     6
 2 1969 - When Gays First Fought Back Against Police Br…                20    13
 3 2Pac's experience with police brutality                               1     2
 4 3 college students accuse LA County deputies of raci…                 5    99
 5 40+ New Police Brutality videos emerge during the Ge…                 1   224
 6 5 Worst Cases of Police Brutality Caught on Tape                     23    63
 7 6 HORRIFIC Police Brutality Cases                                    18    75
 8 7 Police Officers and Nurse Charged in 2020 Death of…                21    28
 9 A Terrible Montage of Police Brutality                               12   145
10 Albuquerque Police Patrol The Streets | FULL EPISODE…                17    21
# ℹ 156 more rows

Code

sampled_yt_dt %>%
  mutate(video_published_at = ymd_hms(video_published_at)) %>%
  group_by(video_published_date = as.Date(video_published_at), video_title) %>%
  summarise(total_likes = sum(like_count)) %>%
  arrange(desc(total_likes)) %>%
  slice(1)

# A tibble: 149 × 3
# Groups:   video_published_date [149]
   video_published_date video_title                                  total_likes
   <date>               <chr>                                              <int>
 1 2006-07-10           Police Brutality                                  767580
 2 2009-10-03           Police brutality (Favorite parts Shrek 2)       20206494
 3 2010-03-12           Police Brutality at Samoan Bridal Shower in…         160
 4 2010-09-05           Shocking police brutality caught on CCTV           52841
 5 2011-02-21           KRUE “Police Brutality” Official Music Vide…       14784
 6 2011-08-24           Largest Police Brutality Award in Wisconsin…       87126
 7 2011-12-15           Booking leads to police brutality bust             44901
 8 2012-06-20           Police Brutality Worse than Rodney King - T…     1604670
 9 2013-12-02           Shocking video emerges of police brutality …        1152
10 2014-03-07           Police brutality video goes viral                      9
# ℹ 139 more rows
…
All of this code is part of the data cleaning and pre-processing process. This process is pivotal for later analyses such as calculating sentiment across the comments or employing more advanced methods of statistical analysis such as structural topical modeling. For the purposes of this project memo, I will focus on cleaning and pre-processing the data for the purposes of exploratory data analysis (e.g., identifying frequent words within the comments). During the final project, I will be employing the more advanced methods of analyses. #

Descriptive stuff —

Code

# But how many times does each word appear?
sampled_yt_dt %>%
  unnest_tokens(word, comment_clean) %>%
  count(word, sort = TRUE) %>%
  slice(1:25) # this is letting us the top 25 words 

# A tibble: 25 × 2
   word      n
   <chr> <int>
 1 cop    2185
 2 polic  2072
 3 offic  1724
 4 get    1217
 5 like   1151
 6 peopl  1083
 7 just   1049
 8 need    817
 9 dont    785
10 one     657
# ℹ 15 more rows

Code

# Most frequent words by video:
sampled_yt_dt %>%
  unnest_tokens(word, comment) %>%
  anti_join(stop_words) %>%
  count(video_title, word, sort = TRUE) %>% 
  group_by(video_title)

# A tibble: 53,196 × 3
# Groups:   video_title [166]
   video_title                                                       word      n
   <chr>                                                             <chr> <int>
 1 Hyde Park Woman Gets Shot After Pulling Knife on Police Officers  knife   104
 2 40+ New Police Brutality videos emerge during the George Floyd P… poli…    75
 3 Cop Caught Arresting the Wrong Man in  Racial Profiling Incident… cop      67
 4 Cop Caught Arresting the Wrong Man in  Racial Profiling Incident… poli…    61
 5 Police: Last Week Tonight with John Oliver (HBO)                  poli…    58
 6 Cops Rescue Kidnapped Woman Chained to Floor in Kentucky Home     hedge    55
 7 [WARNING: GRAPHIC] U.S. Army Veteran Settles California Police B… cops     55
 8 [WARNING: GRAPHIC] U.S. Army Veteran Settles California Police B… poli…    55
 9 Man awarded $10 million in lawsuit over assault by Dearborn poli… poli…    54
10 Cop Caught Arresting the Wrong Man in  Racial Profiling Incident… offi…    53
# ℹ 53,186 more rows
…
